<svg width="136" height="32" viewBox="0 0 136 32" fill="none" xmlns="http://www.w3.org/2000/svg">
<rect width="136" height="32" rx="6" fill="#A8D37F"/>
<path d="M41.3581 10.6328L37.5925 21H36.0534L40.3894 9.625H41.3816L41.3581 10.6328ZM44.5144 21L40.7409 10.6328L40.7175 9.625H41.7097L46.0612 21H44.5144ZM44.3191 16.7891V18.0234H37.9284V16.7891H44.3191ZM49.1762 12.5469V21H47.7309V12.5469H49.1762ZM54.7231 12.5469L50.7153 17.3906H48.6919L48.4731 16.125H50.1294L52.9653 12.5469H54.7231ZM53.1684 21L50.0591 17.1719L50.9887 16.125L55.0044 21H53.1684ZM59.9475 12.5469V21H58.4944V12.5469H59.9475ZM62.7834 12.5469V13.7188H55.7131V12.5469H62.7834ZM66.0078 18.7109L69.9062 12.5469H71.3594V21H69.9062V14.8359L66.0078 21H64.5703V12.5469H66.0078V18.7109ZM77.8884 17.2812H75.115L75.0994 16.125H77.365C77.8129 16.125 78.1853 16.0807 78.4822 15.9922C78.7843 15.9036 79.0108 15.7708 79.1619 15.5938C79.3129 15.4167 79.3884 15.1979 79.3884 14.9375C79.3884 14.7344 79.3442 14.5573 79.2556 14.4062C79.1723 14.25 79.0447 14.1224 78.8728 14.0234C78.7009 13.9193 78.4874 13.8438 78.2322 13.7969C77.9822 13.7448 77.6879 13.7188 77.3494 13.7188H75.4978V21H74.0525V12.5469H77.3494C77.8858 12.5469 78.3676 12.5938 78.7947 12.6875C79.227 12.7812 79.5942 12.9245 79.8962 13.1172C80.2035 13.3047 80.4379 13.5443 80.5994 13.8359C80.7608 14.1276 80.8416 14.4714 80.8416 14.8672C80.8416 15.1224 80.7895 15.3646 80.6853 15.5938C80.5811 15.8229 80.4275 16.026 80.2244 16.2031C80.0212 16.3802 79.7712 16.526 79.4744 16.6406C79.1775 16.75 78.8364 16.8203 78.4509 16.8516L77.8884 17.2812ZM77.8884 21H74.5916L75.3103 19.8281H77.8884C78.2895 19.8281 78.6228 19.7786 78.8884 19.6797C79.1541 19.5755 79.352 19.4297 79.4822 19.2422C79.6176 19.0495 79.6853 18.8203 79.6853 18.5547C79.6853 18.2891 79.6176 18.0625 79.4822 17.875C79.352 17.6823 79.1541 17.5365 78.8884 17.4375C78.6228 17.3333 78.2895 17.2812 77.8884 17.2812H75.6931L75.7087 16.125H78.4509L78.9744 16.5625C79.4379 16.599 79.8311 16.7135 80.1541 16.9062C80.477 17.099 80.7218 17.3438 80.8884 17.6406C81.0551 17.9323 81.1384 18.25 81.1384 18.5938C81.1384 18.9896 81.0629 19.3385 80.9119 19.6406C80.766 19.9427 80.5525 20.1953 80.2712 20.3984C79.99 20.5964 79.6489 20.7474 79.2478 20.8516C78.8468 20.9505 78.3936 21 77.8884 21ZM86.8237 21.1562C86.2352 21.1562 85.7013 21.0573 85.2222 20.8594C84.7482 20.6562 84.3394 20.3724 83.9956 20.0078C83.6571 19.6432 83.3967 19.2109 83.2144 18.7109C83.0321 18.2109 82.9409 17.6641 82.9409 17.0703V16.7422C82.9409 16.0547 83.0425 15.4427 83.2456 14.9062C83.4487 14.3646 83.7248 13.9062 84.0737 13.5312C84.4227 13.1562 84.8185 12.8724 85.2612 12.6797C85.704 12.487 86.1623 12.3906 86.6362 12.3906C87.2404 12.3906 87.7612 12.4948 88.1987 12.7031C88.6415 12.9115 89.0034 13.2031 89.2847 13.5781C89.5659 13.9479 89.7743 14.3854 89.9097 14.8906C90.0451 15.3906 90.1128 15.9375 90.1128 16.5312V17.1797H83.8003V16H88.6675V15.8906C88.6467 15.5156 88.5685 15.151 88.4331 14.7969C88.3029 14.4427 88.0946 14.151 87.8081 13.9219C87.5217 13.6927 87.131 13.5781 86.6362 13.5781C86.3081 13.5781 86.006 13.6484 85.73 13.7891C85.454 13.9245 85.217 14.1276 85.0191 14.3984C84.8211 14.6693 84.6675 15 84.5581 15.3906C84.4487 15.7812 84.3941 16.2318 84.3941 16.7422V17.0703C84.3941 17.4714 84.4487 17.849 84.5581 18.2031C84.6727 18.5521 84.8368 18.8594 85.0503 19.125C85.2691 19.3906 85.5321 19.599 85.8394 19.75C86.1519 19.901 86.506 19.9766 86.9019 19.9766C87.4123 19.9766 87.8446 19.8724 88.1987 19.6641C88.5529 19.4557 88.8628 19.1771 89.1284 18.8281L90.0034 19.5234C89.8211 19.7995 89.5894 20.0625 89.3081 20.3125C89.0269 20.5625 88.6805 20.7656 88.2691 20.9219C87.8628 21.0781 87.381 21.1562 86.8237 21.1562ZM97.7747 16.2109V17.3828H93.3059V16.2109H97.7747ZM93.6106 12.5469V21H92.1653V12.5469H93.6106ZM98.9466 12.5469V21H97.4934V12.5469H98.9466Z" fill="white"/>
</svg>
