<svg width="184" height="40" viewBox="0 0 184 40" fill="none" xmlns="http://www.w3.org/2000/svg">
<rect x="0.5" width="183" height="40" rx="8" fill="#F7F7F7"/>
<path d="M28.5 10C22.98 10 18.5 14.48 18.5 20C18.5 25.52 22.98 30 28.5 30C34.02 30 38.5 25.52 38.5 20C38.5 14.48 34.02 10 28.5 10ZM20.5 20C20.5 15.58 24.08 12 28.5 12C30.35 12 32.05 12.63 33.4 13.69L22.19 24.9C21.13 23.55 20.5 21.85 20.5 20ZM28.5 28C26.65 28 24.95 27.37 23.6 26.31L34.81 15.1C35.87 16.45 36.5 18.15 36.5 20C36.5 24.42 32.92 28 28.5 28Z" fill="#373745"/>
<path d="M53.6069 19.5469H52.0288V18.4297H53.3881C53.8725 18.4297 54.2657 18.3594 54.5678 18.2188C54.8699 18.0729 55.0886 17.8724 55.2241 17.6172C55.3647 17.3568 55.435 17.0547 55.435 16.7109C55.435 16.4036 55.3569 16.1224 55.2006 15.8672C55.0496 15.612 54.8152 15.4089 54.4975 15.2578C54.1798 15.1016 53.7709 15.0234 53.2709 15.0234C52.8959 15.0234 52.5548 15.0911 52.2475 15.2266C51.9402 15.362 51.6954 15.5521 51.5131 15.7969C51.336 16.0417 51.2475 16.3307 51.2475 16.6641H49.2866C49.2866 16.1693 49.3907 15.7266 49.5991 15.3359C49.8126 14.9401 50.1017 14.6042 50.4663 14.3281C50.836 14.0521 51.2605 13.8411 51.7397 13.6953C52.2241 13.5443 52.7345 13.4688 53.2709 13.4688C53.8959 13.4688 54.461 13.5391 54.9663 13.6797C55.4715 13.8151 55.9064 14.0182 56.2709 14.2891C56.6355 14.5599 56.9142 14.8984 57.1069 15.3047C57.2996 15.7057 57.3959 16.1719 57.3959 16.7031C57.3959 17.0938 57.3048 17.4609 57.1225 17.8047C56.9454 18.1484 56.6902 18.4505 56.3569 18.7109C56.0235 18.9714 55.6225 19.1771 55.1538 19.3281C54.6902 19.474 54.1746 19.5469 53.6069 19.5469ZM52.0288 18.8672H53.6069C54.2371 18.8672 54.797 18.9323 55.2866 19.0625C55.7761 19.1927 56.1902 19.3828 56.5288 19.6328C56.8673 19.8828 57.1251 20.1927 57.3022 20.5625C57.4793 20.9271 57.5678 21.3464 57.5678 21.8203C57.5678 22.3516 57.461 22.8255 57.2475 23.2422C57.0392 23.6536 56.7423 24.0026 56.3569 24.2891C55.9715 24.5755 55.5157 24.7917 54.9897 24.9375C54.4689 25.0833 53.8959 25.1562 53.2709 25.1562C52.7657 25.1562 52.2657 25.0938 51.7709 24.9688C51.2814 24.8385 50.836 24.6406 50.435 24.375C50.0392 24.1042 49.7215 23.7604 49.4819 23.3438C49.2423 22.9271 49.1225 22.4271 49.1225 21.8438H51.0913C51.0913 22.1667 51.1824 22.4635 51.3647 22.7344C51.5522 23 51.8074 23.2135 52.1303 23.375C52.4584 23.5312 52.8386 23.6094 53.2709 23.6094C53.7657 23.6094 54.185 23.5312 54.5288 23.375C54.8777 23.2188 55.1433 23.0052 55.3256 22.7344C55.5131 22.4635 55.6069 22.1589 55.6069 21.8203C55.6069 21.4974 55.5574 21.2188 55.4584 20.9844C55.3647 20.7448 55.2241 20.5521 55.0366 20.4062C54.8491 20.2552 54.6173 20.1432 54.3413 20.0703C54.0652 19.9974 53.7475 19.9609 53.3881 19.9609H52.0288V18.8672ZM64.2453 23.3047V19.2734C64.2453 18.9714 64.1906 18.7109 64.0813 18.4922C63.9719 18.2734 63.8052 18.1042 63.5813 17.9844C63.3625 17.8646 63.0865 17.8047 62.7531 17.8047C62.4458 17.8047 62.1802 17.8568 61.9563 17.9609C61.7323 18.0651 61.5578 18.2057 61.4328 18.3828C61.3078 18.5599 61.2453 18.7604 61.2453 18.9844H59.3703C59.3703 18.651 59.451 18.3281 59.6125 18.0156C59.774 17.7031 60.0083 17.4245 60.3156 17.1797C60.6229 16.9349 60.9901 16.7422 61.4172 16.6016C61.8443 16.4609 62.3234 16.3906 62.8547 16.3906C63.4901 16.3906 64.0526 16.4974 64.5422 16.7109C65.037 16.9245 65.425 17.2474 65.7063 17.6797C65.9927 18.1068 66.1359 18.6432 66.1359 19.2891V23.0469C66.1359 23.4323 66.162 23.7786 66.2141 24.0859C66.2714 24.388 66.3521 24.651 66.4563 24.875V25H64.5266C64.438 24.7969 64.3677 24.5391 64.3156 24.2266C64.2688 23.9089 64.2453 23.6016 64.2453 23.3047ZM64.5188 19.8594L64.5344 21.0234H63.1828C62.8339 21.0234 62.5266 21.0573 62.2609 21.125C61.9953 21.1875 61.774 21.2812 61.5969 21.4062C61.4198 21.5312 61.287 21.6823 61.1984 21.8594C61.1099 22.0365 61.0656 22.237 61.0656 22.4609C61.0656 22.6849 61.1177 22.8906 61.2219 23.0781C61.326 23.2604 61.4771 23.4036 61.675 23.5078C61.8781 23.612 62.1229 23.6641 62.4094 23.6641C62.7948 23.6641 63.1307 23.5859 63.4172 23.4297C63.7089 23.2682 63.938 23.0729 64.1047 22.8438C64.2714 22.6094 64.3599 22.388 64.3703 22.1797L64.9797 23.0156C64.9172 23.2292 64.8104 23.4583 64.6594 23.7031C64.5083 23.9479 64.3104 24.1823 64.0656 24.4062C63.826 24.625 63.537 24.8047 63.1984 24.9453C62.8651 25.0859 62.4797 25.1562 62.0422 25.1562C61.4901 25.1562 60.9979 25.0469 60.5656 24.8281C60.1333 24.6042 59.7948 24.3047 59.55 23.9297C59.3052 23.5495 59.1828 23.1198 59.1828 22.6406C59.1828 22.1927 59.2661 21.7969 59.4328 21.4531C59.6047 21.1042 59.8547 20.8125 60.1828 20.5781C60.5161 20.3438 60.9224 20.1667 61.4016 20.0469C61.8807 19.9219 62.4276 19.8594 63.0422 19.8594H64.5188ZM73.6494 12.8438H75.1728C75.1728 13.3073 75.1077 13.6901 74.9775 13.9922C74.8525 14.2891 74.665 14.5339 74.415 14.7266C74.1702 14.9141 73.8655 15.0651 73.5009 15.1797C73.1416 15.2943 72.7249 15.3984 72.2509 15.4922C71.8134 15.5859 71.4176 15.7344 71.0634 15.9375C70.7145 16.1354 70.4202 16.4141 70.1806 16.7734C69.9463 17.1276 69.777 17.5833 69.6728 18.1406C69.5686 18.6979 69.5374 19.3776 69.5791 20.1797V20.7109L68.0869 20.8438V20.3125C68.0869 19.3177 68.178 18.4505 68.3603 17.7109C68.5426 16.9714 68.8004 16.349 69.1338 15.8438C69.4723 15.3333 69.8733 14.9271 70.3369 14.625C70.8056 14.3229 71.3265 14.1146 71.8994 14C72.29 13.9167 72.6155 13.8333 72.8759 13.75C73.1364 13.6615 73.3291 13.5495 73.4541 13.4141C73.5843 13.2734 73.6494 13.0833 73.6494 12.8438ZM72.3291 17.0234C72.8916 17.0234 73.3916 17.1224 73.8291 17.3203C74.2666 17.513 74.6364 17.7839 74.9384 18.1328C75.2405 18.4818 75.4697 18.8932 75.6259 19.3672C75.7874 19.8411 75.8681 20.3568 75.8681 20.9141V21.0859C75.8681 21.6693 75.7822 22.2083 75.6103 22.7031C75.4384 23.1979 75.1858 23.6302 74.8525 24C74.5192 24.3646 74.1103 24.651 73.6259 24.8594C73.1468 25.0625 72.5973 25.1641 71.9775 25.1641C71.3629 25.1641 70.8134 25.0573 70.3291 24.8438C69.8447 24.6302 69.4358 24.3333 69.1025 23.9531C68.7692 23.5677 68.5166 23.1172 68.3447 22.6016C68.1728 22.0859 68.0869 21.5234 68.0869 20.9141V20.7422C68.0817 20.6328 68.1103 20.526 68.1728 20.4219C68.2405 20.3177 68.3213 20.2057 68.415 20.0859C68.5088 19.9661 68.5921 19.8281 68.665 19.6719C68.9254 19.1458 69.2327 18.6849 69.5869 18.2891C69.941 17.8932 70.3447 17.5833 70.7978 17.3594C71.2561 17.1354 71.7666 17.0234 72.3291 17.0234ZM71.9619 18.5156C71.4931 18.5156 71.1103 18.6276 70.8134 18.8516C70.5218 19.0703 70.3056 19.362 70.165 19.7266C70.0296 20.0911 69.9619 20.487 69.9619 20.9141V21.0859C69.9619 21.4349 70.0009 21.7656 70.0791 22.0781C70.1572 22.3906 70.2744 22.6667 70.4306 22.9062C70.5921 23.1406 70.8004 23.3255 71.0556 23.4609C71.316 23.5964 71.6233 23.6641 71.9775 23.6641C72.3369 23.6641 72.6416 23.5964 72.8916 23.4609C73.1468 23.3255 73.3525 23.1406 73.5088 22.9062C73.6702 22.6667 73.7874 22.3906 73.8603 22.0781C73.9384 21.7656 73.9775 21.4349 73.9775 21.0859V20.9141C73.9775 20.5911 73.9384 20.2865 73.8603 20C73.7874 19.7135 73.6702 19.4609 73.5088 19.2422C73.3473 19.0182 73.139 18.8411 72.8838 18.7109C72.6285 18.5807 72.3213 18.5156 71.9619 18.5156ZM83.2644 16.5469V18.0469H79.1394V16.5469H83.2644ZM84.7409 16.5469V25H82.8581V16.5469H84.7409ZM78.6784 16.5469H80.5378L80.3113 20.7266C80.28 21.3464 80.2175 21.8932 80.1238 22.3672C80.0352 22.8359 79.9154 23.2396 79.7644 23.5781C79.6133 23.9115 79.4284 24.1823 79.2097 24.3906C78.9909 24.599 78.7357 24.7526 78.4441 24.8516C78.1524 24.9505 77.8243 25 77.4597 25H76.8738L76.8659 23.4531L77.1628 23.4297C77.3555 23.4141 77.5222 23.3646 77.6628 23.2812C77.8034 23.1927 77.9232 23.0677 78.0222 22.9062C78.1264 22.7448 78.2097 22.5365 78.2722 22.2812C78.3399 22.026 78.392 21.724 78.4284 21.375C78.4701 21.026 78.5014 20.6198 78.5222 20.1562L78.6784 16.5469ZM86.6216 20.8672V20.6875C86.6216 20.0781 86.7101 19.513 86.8872 18.9922C87.0643 18.4661 87.3195 18.0104 87.6528 17.625C87.9914 17.2344 88.4028 16.9323 88.8872 16.7188C89.3768 16.5 89.9289 16.3906 90.5434 16.3906C91.1632 16.3906 91.7153 16.5 92.1997 16.7188C92.6893 16.9323 93.1033 17.2344 93.4419 17.625C93.7804 18.0104 94.0382 18.4661 94.2153 18.9922C94.3924 19.513 94.4809 20.0781 94.4809 20.6875V20.8672C94.4809 21.4766 94.3924 22.0417 94.2153 22.5625C94.0382 23.0833 93.7804 23.5391 93.4419 23.9297C93.1033 24.3151 92.6919 24.6172 92.2075 24.8359C91.7231 25.0495 91.1736 25.1562 90.5591 25.1562C89.9393 25.1562 89.3846 25.0495 88.895 24.8359C88.4106 24.6172 87.9992 24.3151 87.6606 23.9297C87.3221 23.5391 87.0643 23.0833 86.8872 22.5625C86.7101 22.0417 86.6216 21.4766 86.6216 20.8672ZM88.5044 20.6875V20.8672C88.5044 21.2474 88.5434 21.6068 88.6216 21.9453C88.6997 22.2839 88.8221 22.5807 88.9888 22.8359C89.1554 23.0911 89.369 23.2917 89.6294 23.4375C89.8898 23.5833 90.1997 23.6562 90.5591 23.6562C90.908 23.6562 91.2101 23.5833 91.4653 23.4375C91.7257 23.2917 91.9393 23.0911 92.1059 22.8359C92.2726 22.5807 92.395 22.2839 92.4731 21.9453C92.5565 21.6068 92.5981 21.2474 92.5981 20.8672V20.6875C92.5981 20.3125 92.5565 19.9583 92.4731 19.625C92.395 19.2865 92.27 18.987 92.0981 18.7266C91.9315 18.4661 91.7179 18.263 91.4575 18.1172C91.2023 17.9661 90.8976 17.8906 90.5434 17.8906C90.1893 17.8906 89.882 17.9661 89.6216 18.1172C89.3664 18.263 89.1554 18.4661 88.9888 18.7266C88.8221 18.987 88.6997 19.2865 88.6216 19.625C88.5434 19.9583 88.5044 20.3125 88.5044 20.6875ZM98.3303 16.5469V25H96.4475V16.5469H98.3303ZM103.846 16.5469L100.041 21.6328H97.8928L97.6428 19.9297H99.2131L101.494 16.5469H103.846ZM101.643 25L99.0959 21.3125L100.58 20.2422L104.119 25H101.643ZM107.328 22.25L110.648 16.5469H112.531V25H110.648V19.2891L107.328 25H105.445V16.5469H107.328V22.25ZM116.654 18.1719V28.25H114.771V16.5469H116.506L116.654 18.1719ZM122.162 20.6953V20.8594C122.162 21.474 122.089 22.0443 121.943 22.5703C121.803 23.0911 121.592 23.5469 121.31 23.9375C121.034 24.3229 120.693 24.6224 120.287 24.8359C119.881 25.0495 119.412 25.1562 118.881 25.1562C118.355 25.1562 117.894 25.0599 117.498 24.8672C117.107 24.6693 116.776 24.3906 116.506 24.0312C116.235 23.6719 116.016 23.25 115.849 22.7656C115.688 22.276 115.573 21.7396 115.506 21.1562V20.5234C115.573 19.9036 115.688 19.3411 115.849 18.8359C116.016 18.3307 116.235 17.8958 116.506 17.5312C116.776 17.1667 117.107 16.8854 117.498 16.6875C117.888 16.4896 118.344 16.3906 118.865 16.3906C119.396 16.3906 119.868 16.4948 120.279 16.7031C120.691 16.9062 121.037 17.1979 121.318 17.5781C121.599 17.9531 121.81 18.4062 121.951 18.9375C122.092 19.4635 122.162 20.0495 122.162 20.6953ZM120.279 20.8594V20.6953C120.279 20.3047 120.243 19.9427 120.17 19.6094C120.097 19.2708 119.982 18.974 119.826 18.7188C119.67 18.4635 119.469 18.2656 119.224 18.125C118.985 17.9792 118.696 17.9062 118.357 17.9062C118.024 17.9062 117.737 17.9635 117.498 18.0781C117.258 18.1875 117.058 18.3411 116.896 18.5391C116.735 18.737 116.61 18.9688 116.521 19.2344C116.433 19.4948 116.37 19.7786 116.334 20.0859V21.6016C116.396 21.9766 116.503 22.3203 116.654 22.6328C116.805 22.9453 117.019 23.1953 117.295 23.3828C117.576 23.5651 117.935 23.6562 118.373 23.6562C118.711 23.6562 119 23.5833 119.24 23.4375C119.48 23.2917 119.675 23.0911 119.826 22.8359C119.982 22.5755 120.097 22.276 120.17 21.9375C120.243 21.599 120.279 21.2396 120.279 20.8594ZM123.644 20.8672V20.6875C123.644 20.0781 123.733 19.513 123.91 18.9922C124.087 18.4661 124.342 18.0104 124.675 17.625C125.014 17.2344 125.425 16.9323 125.91 16.7188C126.399 16.5 126.951 16.3906 127.566 16.3906C128.186 16.3906 128.738 16.5 129.222 16.7188C129.712 16.9323 130.126 17.2344 130.464 17.625C130.803 18.0104 131.061 18.4661 131.238 18.9922C131.415 19.513 131.503 20.0781 131.503 20.6875V20.8672C131.503 21.4766 131.415 22.0417 131.238 22.5625C131.061 23.0833 130.803 23.5391 130.464 23.9297C130.126 24.3151 129.714 24.6172 129.23 24.8359C128.746 25.0495 128.196 25.1562 127.582 25.1562C126.962 25.1562 126.407 25.0495 125.917 24.8359C125.433 24.6172 125.022 24.3151 124.683 23.9297C124.345 23.5391 124.087 23.0833 123.91 22.5625C123.733 22.0417 123.644 21.4766 123.644 20.8672ZM125.527 20.6875V20.8672C125.527 21.2474 125.566 21.6068 125.644 21.9453C125.722 22.2839 125.845 22.5807 126.011 22.8359C126.178 23.0911 126.391 23.2917 126.652 23.4375C126.912 23.5833 127.222 23.6562 127.582 23.6562C127.931 23.6562 128.233 23.5833 128.488 23.4375C128.748 23.2917 128.962 23.0911 129.128 22.8359C129.295 22.5807 129.417 22.2839 129.496 21.9453C129.579 21.6068 129.621 21.2474 129.621 20.8672V20.6875C129.621 20.3125 129.579 19.9583 129.496 19.625C129.417 19.2865 129.292 18.987 129.121 18.7266C128.954 18.4661 128.74 18.263 128.48 18.1172C128.225 17.9661 127.92 17.8906 127.566 17.8906C127.212 17.8906 126.904 17.9661 126.644 18.1172C126.389 18.263 126.178 18.4661 126.011 18.7266C125.845 18.987 125.722 19.2865 125.644 19.625C125.566 19.9583 125.527 20.3125 125.527 20.6875ZM137.431 21.3828H134.728L134.712 20.0547H136.931C137.296 20.0547 137.595 20.0182 137.829 19.9453C138.069 19.8724 138.246 19.763 138.361 19.6172C138.475 19.4661 138.533 19.2839 138.533 19.0703C138.533 18.8932 138.499 18.7396 138.431 18.6094C138.363 18.474 138.259 18.3646 138.118 18.2812C137.983 18.1927 137.811 18.1302 137.603 18.0938C137.4 18.0521 137.163 18.0312 136.892 18.0312H135.353V25H133.47V16.5469H136.892C137.434 16.5469 137.921 16.5938 138.353 16.6875C138.79 16.7812 139.163 16.9245 139.47 17.1172C139.777 17.3099 140.012 17.5547 140.173 17.8516C140.34 18.1432 140.423 18.487 140.423 18.8828C140.423 19.1432 140.366 19.388 140.251 19.6172C140.142 19.8464 139.978 20.0495 139.759 20.2266C139.54 20.4036 139.272 20.5495 138.954 20.6641C138.637 20.7734 138.272 20.8411 137.861 20.8672L137.431 21.3828ZM137.431 25H134.181L134.931 23.5156H137.431C137.764 23.5156 138.04 23.474 138.259 23.3906C138.478 23.3073 138.639 23.1875 138.743 23.0312C138.853 22.8698 138.908 22.6797 138.908 22.4609C138.908 22.237 138.855 22.0443 138.751 21.8828C138.647 21.7214 138.486 21.599 138.267 21.5156C138.053 21.4271 137.775 21.3828 137.431 21.3828H135.283L135.298 20.0547H137.853L138.392 20.5703C138.928 20.6068 139.374 20.7214 139.728 20.9141C140.082 21.1068 140.348 21.349 140.525 21.6406C140.702 21.9323 140.79 22.25 140.79 22.5938C140.79 22.9896 140.715 23.3385 140.564 23.6406C140.418 23.9427 140.199 24.1953 139.908 24.3984C139.621 24.5964 139.269 24.7474 138.853 24.8516C138.436 24.9505 137.962 25 137.431 25ZM147.421 23.3047V19.2734C147.421 18.9714 147.366 18.7109 147.257 18.4922C147.148 18.2734 146.981 18.1042 146.757 17.9844C146.538 17.8646 146.262 17.8047 145.929 17.8047C145.621 17.8047 145.356 17.8568 145.132 17.9609C144.908 18.0651 144.733 18.2057 144.608 18.3828C144.483 18.5599 144.421 18.7604 144.421 18.9844H142.546C142.546 18.651 142.627 18.3281 142.788 18.0156C142.95 17.7031 143.184 17.4245 143.491 17.1797C143.799 16.9349 144.166 16.7422 144.593 16.6016C145.02 16.4609 145.499 16.3906 146.03 16.3906C146.666 16.3906 147.228 16.4974 147.718 16.7109C148.213 16.9245 148.601 17.2474 148.882 17.6797C149.168 18.1068 149.312 18.6432 149.312 19.2891V23.0469C149.312 23.4323 149.338 23.7786 149.39 24.0859C149.447 24.388 149.528 24.651 149.632 24.875V25H147.702C147.614 24.7969 147.543 24.5391 147.491 24.2266C147.444 23.9089 147.421 23.6016 147.421 23.3047ZM147.694 19.8594L147.71 21.0234H146.358C146.009 21.0234 145.702 21.0573 145.437 21.125C145.171 21.1875 144.95 21.2812 144.773 21.4062C144.595 21.5312 144.463 21.6823 144.374 21.8594C144.286 22.0365 144.241 22.237 144.241 22.4609C144.241 22.6849 144.293 22.8906 144.398 23.0781C144.502 23.2604 144.653 23.4036 144.851 23.5078C145.054 23.612 145.299 23.6641 145.585 23.6641C145.97 23.6641 146.306 23.5859 146.593 23.4297C146.884 23.2682 147.114 23.0729 147.28 22.8438C147.447 22.6094 147.536 22.388 147.546 22.1797L148.155 23.0156C148.093 23.2292 147.986 23.4583 147.835 23.7031C147.684 23.9479 147.486 24.1823 147.241 24.4062C147.002 24.625 146.713 24.8047 146.374 24.9453C146.041 25.0859 145.655 25.1562 145.218 25.1562C144.666 25.1562 144.174 25.0469 143.741 24.8281C143.309 24.6042 142.97 24.3047 142.726 23.9297C142.481 23.5495 142.358 23.1198 142.358 22.6406C142.358 22.1927 142.442 21.7969 142.608 21.4531C142.78 21.1042 143.03 20.8125 143.358 20.5781C143.692 20.3438 144.098 20.1667 144.577 20.0469C145.056 19.9219 145.603 19.8594 146.218 19.8594H147.694ZM155.317 16.5469V25H153.427V16.5469H155.317ZM158.091 16.5469V18.0312H150.7V16.5469H158.091ZM160.987 19.2344H163.479C164.208 19.2344 164.828 19.3568 165.338 19.6016C165.849 19.8464 166.237 20.1875 166.503 20.625C166.773 21.0573 166.909 21.5521 166.909 22.1094C166.909 22.5208 166.833 22.9036 166.682 23.2578C166.531 23.6068 166.307 23.9115 166.01 24.1719C165.719 24.4323 165.359 24.6354 164.932 24.7812C164.51 24.9271 164.026 25 163.479 25H159.737V16.5469H161.628V23.5078H163.479C163.854 23.5078 164.154 23.4427 164.378 23.3125C164.601 23.1823 164.763 23.013 164.862 22.8047C164.966 22.5964 165.018 22.375 165.018 22.1406C165.018 21.901 164.966 21.6745 164.862 21.4609C164.763 21.2474 164.601 21.0729 164.378 20.9375C164.154 20.8021 163.854 20.7344 163.479 20.7344H160.987V19.2344Z" fill="#373745"/>
</svg>
